<?xml version="1.0" encoding="utf-8"?>
<!-- Generator: Adobe Illustrator 22.1.0, SVG Export Plug-In . SVG Version: 6.00 Build 0)  -->
<svg version="1.1" id="Layer_1" xmlns="http://www.w3.org/2000/svg" xmlns:xlink="http://www.w3.org/1999/xlink" x="0px" y="0px"
	 viewBox="0 0 23.3 15.5" style="enable-background:new 0 0 23.3 15.5;" xml:space="preserve">
<style type="text/css">
	.st0{fill:#294975;}
	.st1{fill:none;}
</style>
<g>
	<path class="st0" d="M18.2,5.6c0-0.1-0.1-0.2-0.2-0.3l-1.4-0.4l-0.1-0.2c-0.1,0.1-0.2,0.1-0.2,0.1c-0.1,0-0.6,0-0.8,0
		c0,0-0.1,0-0.2-0.1l-0.1,0.2l-1.4,0.4c-0.1,0-0.2,0.2-0.2,0.3l-0.5-0.1c0-0.3,0.2-0.5,0.5-0.6l1.2-0.4L15,4.4
		c-0.1-0.2-0.2-0.3-0.2-0.5h-0.1V3.8c-0.1-0.2-0.1-0.5-0.1-0.7V3l0.1-0.1c0-0.2,0-0.3,0-0.5c0-0.7,0.7-1.1,1.3-1.1l0,0
		c0.6,0,1.3,0.4,1.3,1.1c0,0.1,0,0.3,0,0.5V3v0.1c0,0.2,0,0.5-0.1,0.7v0.1h-0.1c0,0.2-0.1,0.3-0.2,0.5L17,4.5l1.2,0.4
		c0.3,0.1,0.5,0.3,0.5,0.6L18.2,5.6z M15.4,4.2c0.1,0.1,0.2,0.2,0.3,0.2h0.4c0,0,0.1-0.1,0.3-0.2c0.1-0.1,0.2-0.4,0.2-0.5V3.6
		l0.1-0.1c0-0.1,0.1-0.2,0.1-0.3l-0.1-0.1V3c0-0.2,0-0.4,0-0.5c0-0.5-0.4-0.7-0.9-0.6l0,0c-0.4,0-0.9,0.2-0.9,0.6c0,0.2,0,0.4,0,0.5
		v0.1L15,3.2c0,0.1,0,0.2,0.1,0.3l0.1,0.1v0.1C15.2,3.8,15.3,4.1,15.4,4.2z"/>
</g>
<g>
	<path class="st0" d="M9.9,5.6c0-0.1-0.1-0.2-0.2-0.3L8.3,4.9V4.7C8.1,4.8,8.1,4.8,8.1,4.8c-0.1,0-0.6,0-0.8,0c0,0-0.1,0-0.2-0.1
		L7,4.9L5.6,5.3c-0.1,0-0.2,0.2-0.2,0.3L5,5.5C5,5.2,5.2,5,5.5,4.9l1.2-0.4l0.1-0.1C6.7,4.2,6.6,4.1,6.5,3.9H6.4V3.8
		C6.3,3.5,6.3,3.3,6.3,3.1V3h0.1c0-0.2,0-0.3,0-0.5c0-0.7,0.7-1.1,1.3-1.1l0,0C8.3,1.4,9,1.8,9,2.5C9,2.6,9,2.8,9,3h0.1v0.1
		c0,0.2,0,0.5-0.1,0.7v0.1H8.9c0,0.2-0.1,0.3-0.2,0.5l0.1,0.1L10,4.9c0.3,0.1,0.5,0.3,0.5,0.6L9.9,5.6z M7.2,4.2
		c0.1,0.1,0.2,0.2,0.3,0.2h0.4c0,0,0.1-0.1,0.3-0.2c0.1-0.1,0.2-0.3,0.2-0.5V3.6l0.1-0.1c0-0.1,0.1-0.2,0.1-0.3L8.5,3.1V3
		c0-0.2,0-0.4,0-0.5c0-0.5-0.4-0.6-0.9-0.6l0,0C7.3,1.8,6.8,2,6.8,2.5c0,0.2,0,0.4,0,0.5v0.1v0.1c0,0.1,0,0.2,0.1,0.3L7,3.6v0.1
		C7,3.8,7.1,4.1,7.2,4.2z"/>
</g>
<g>
	<path class="st0" d="M13.9,5.6c0-0.1-0.1-0.2-0.2-0.2L12.5,5l-0.1-0.1c-0.1,0-0.1,0.1-0.1,0.1c-0.1,0-0.5,0-0.7,0
		c0,0-0.1,0-0.2-0.1l0,0.1l-1.2,0.4C10,5.4,10,5.5,10,5.6L9.6,5.5C9.6,5.3,9.8,5.1,10,5l1.1-0.3l0.1-0.1C11.1,4.4,11,4.3,11,4.1
		h-0.1V4c-0.1-0.2-0.1-0.4-0.1-0.6V3.3h0.1c0-0.1,0-0.3,0-0.4C10.9,2.3,11.5,2,12,2l0,0c0.6,0,1.1,0.3,1.1,0.9c0,0.1,0,0.3,0,0.4
		h0.1v0.1c0,0.2,0,0.4-0.1,0.6v0.1H13c0,0.1-0.1,0.3-0.2,0.4l0.1,0.1l1,0.4c0.2,0.1,0.4,0.3,0.4,0.5L13.9,5.6z M11.5,4.4
		c0.1,0.1,0.2,0.2,0.3,0.2c0,0,0.3,0,0.4,0c0,0,0.1-0.1,0.2-0.2c0.1-0.1,0.2-0.3,0.2-0.5V3.8h0.1c0-0.1,0-0.2,0.1-0.3l-0.1-0.1V3.3
		c0-0.1,0-0.3,0-0.4c0-0.4-0.4-0.6-0.7-0.6l0,0c-0.4,0-0.7,0.2-0.8,0.5c0,0.2,0,0.3,0,0.5v0.1l-0.1,0.1c0,0.1,0,0.2,0.1,0.3h0.1v0.1
		C11.4,4.1,11.4,4.3,11.5,4.4z"/>
</g>
<g>
	<path class="st0" d="M0.6,11.8v2.8c0,0.1,0.1,0.2,0.2,0.2h2.8c0.2,0,0.3-0.1,0.3-0.2v-2.8h0.6v2.8c0,0.4-0.4,0.8-0.9,0.8H0.8
		c-0.4,0-0.8-0.4-0.8-0.8V8.5c0-0.8,0.2-1.4,0.6-1.9c0.1-0.1,0.3-0.3,0.5-0.7c0.3-0.4,0.7-1,1.2-1.6H0.7V3.7h1.9
		c0.8-0.9,1.6-2,2.4-2.9c0.3-0.3,0.6-0.5,1-0.5c4.5-0.3,6.7-0.3,11.4,0c0.4,0.1,0.8,0.2,1,0.5c0.8,1,1.6,2.1,2.3,3V3.7h2v0.6h-1.6
		c0.5,0.6,0.9,1.2,1.1,1.6c0.3,0.4,0.5,0.7,0.5,0.7c0.4,0.5,0.6,1.1,0.6,1.9v6.3c0,0.4-0.3,0.7-0.8,0.7h-2.8c-0.5,0-0.9-0.4-0.9-0.8
		v-2.8h0.6v2.8c0,0.1,0.1,0.2,0.3,0.2h2.8c0.1,0,0.2-0.1,0.2-0.2v-2.7L0.6,11.8z M2.2,5.3c4.8,0.2,14.1,0.2,18.9,0
		c-0.8-1.1-2-2.7-3.2-4.2c-0.2-0.2-0.4-0.3-0.6-0.3c-4.6-0.3-6.8-0.3-11.3,0C5.6,0.8,5.5,1,5.4,1.1C4.2,2.6,3,4.2,2.2,5.3z M6.3,9.7
		H2.9V9.1h3.4V9.7z M20.5,9.7h-3.4V9.1h3.4V9.7z"/>
</g>
<g>
	<rect x="0.3" y="11.6" class="st0" width="22.9" height="0.6"/>
</g>
<g>
	<line class="st1" x1="16.3" y1="6.1" x2="6.5" y2="6.1"/>
</g>
<g>
	<path class="st0" d="M16.3,7.3"/>
</g>
<rect x="19.3" y="11.7" class="st0" width="3.7" height="3.3"/>
<rect x="0.4" y="11.7" class="st0" width="3.7" height="3.3"/>
</svg>
