<?xml version="1.0" encoding="utf-8"?>
<!-- Generator: Adobe Illustrator 22.1.0, SVG Export Plug-In . SVG Version: 6.00 Build 0)  -->
<svg version="1.1" id="Layer_1" xmlns="http://www.w3.org/2000/svg" xmlns:xlink="http://www.w3.org/1999/xlink" x="0px" y="0px"
	 viewBox="0 0 24.8 44" style="enable-background:new 0 0 24.8 44;" xml:space="preserve">
<style type="text/css">
	.st0{fill:#254A89;}
	.st1{opacity:0.3;fill:#254A89;}
</style>
<g>
	<path class="st0" d="M1.8,14.5l2.8-3.2l4.9,0.5l-3.9,8.4h2l6.8-8.4h5.6c1.1,0,2.2-0.2,3.2-0.5c0.5-0.2,1.3-0.6,1.3-1.2
		c0-0.6-0.9-1.1-1.3-1.2c-1.1-0.4-2.1-0.5-3.2-0.5h-5.6L7.7,0h-2l3.9,8.3L4.6,8.9L1.8,5.6H0l2.2,4.5L0,14.5H1.8z"/>
</g>
<g>
	<path class="st0" d="M1.3,38.9v5H0.6v-5H1.3z"/>
	<path class="st0" d="M5.4,41.7v2.2H4.8v-2.2c0-0.6-0.3-0.9-0.9-0.9c-0.6,0-1,0.3-1,1.2v1.9H2.3v-3.6h0.6v0.5
		c0.3-0.4,0.7-0.6,1.2-0.6C4.9,40.2,5.4,40.8,5.4,41.7z"/>
	<path class="st0" d="M9.4,40.3L8,43.9H7.2l-1.4-3.6h0.7l1.1,2.9l1.1-2.9H9.4z"/>
	<path class="st0" d="M11.5,43.4c0.5,0,0.8-0.2,1-0.5l0.5,0.3c-0.3,0.5-0.9,0.8-1.6,0.8c-1.1,0-1.9-0.8-1.9-1.9
		c0-1.1,0.8-1.9,1.9-1.9c1.1,0,1.8,0.9,1.8,1.9c0,0.1,0,0.2,0,0.3h-3C10.3,43,10.8,43.4,11.5,43.4z M10.2,41.9h2.4
		c-0.1-0.7-0.6-1-1.1-1C10.8,40.8,10.3,41.2,10.2,41.9z"/>
	<path class="st0" d="M15.6,40.3v0.6c-0.5,0-1.1,0.2-1.1,1.1v1.9h-0.6v-3.6h0.6v0.6C14.8,40.4,15.2,40.3,15.6,40.3z"/>
	<path class="st0" d="M17.3,40.9v1.9c0,0.5,0.3,0.5,0.9,0.5v0.6c-1.1,0.1-1.6-0.1-1.6-1v-1.9H16v-0.6h0.7v-0.8l0.6-0.2v1h0.9v0.6
		H17.3z"/>
	<path class="st0" d="M20.5,43.4c0.5,0,0.8-0.2,1-0.5l0.5,0.3c-0.3,0.5-0.9,0.8-1.6,0.8c-1.1,0-1.9-0.8-1.9-1.9
		c0-1.1,0.8-1.9,1.9-1.9c1.1,0,1.8,0.9,1.8,1.9c0,0.1,0,0.2,0,0.3h-3C19.4,43,19.9,43.4,20.5,43.4z M19.2,41.9h2.4
		c-0.1-0.7-0.6-1-1.1-1C19.8,40.8,19.3,41.2,19.2,41.9z"/>
	<path class="st0" d="M24.7,40.3v0.6c-0.5,0-1.1,0.2-1.1,1.1v1.9H23v-3.6h0.6v0.6C23.8,40.4,24.2,40.3,24.7,40.3z"/>
</g>
<path class="st1" d="M24.8,21.7h-1.8l-2.8,3.2l-4.9-0.5l3.9-8.3h-2l-6.8,8.3H4.7c-1.1,0-2.2,0.2-3.2,0.5c-0.5,0.2-1.3,0.7-1.3,1.2
	c0,0.6,0.9,1,1.3,1.2c1.1,0.4,2.1,0.5,3.2,0.5h5.6l6.8,8.4h2l-3.9-8.4l4.9-0.5l2.8,3.2h1.8l-2.2-4.4L24.8,21.7z"/>
</svg>
