<?xml version="1.0" encoding="utf-8"?>
<!-- Generator: Adobe Illustrator 22.1.0, SVG Export Plug-In . SVG Version: 6.00 Build 0)  -->
<svg version="1.1" id="icons" xmlns="http://www.w3.org/2000/svg" xmlns:xlink="http://www.w3.org/1999/xlink" x="0px" y="0px"
	 viewBox="0 0 46.9 22.9" style="enable-background:new 0 0 46.9 22.9;" xml:space="preserve">
<style type="text/css">
	.st0{fill:none;stroke:#244A88;stroke-width:0.8504;stroke-linejoin:round;stroke-miterlimit:10;}
	.st1{fill:#244A88;}
</style>
<path class="st0" d="M14.5,18.4c5,0,12,0,17,0"/>
<path class="st0" d="M40.4,18.4h6c0,0,0-4.3,0-6c0-2.3-6.8-5.2-12-6c-3.9-3.7-7.3-6-11.1-6s-5.9,0-7.8,0c-4.2,0-6.6,3-10.8,6
	c-1.9,0-2,0-3.2,0c-1,2.6-1.4,6.9-0.9,8.9s1.8,3.1,3.9,3.1c0.1,0,0.9,0,0.9,0"/>
<circle class="st0" cx="36" cy="17.9" r="4.5"/>
<circle class="st0" cx="10" cy="17.9" r="4.5"/>
<circle class="st1" cx="36" cy="17.9" r="4.5"/>
<circle class="st1" cx="10" cy="17.9" r="4.5"/>
<path class="st1" d="M8.7,3.3l4.8,5.1h16l4.9-2c0,0,8.2,1.6,10.2,3.7c2.1,2.1,2,2.5,1.8,6.3s0.4,2,0,2s-6,0-6,0s0.6-5.3-4.8-5
	c-5.4,0.3-4.1,5-4.1,5H14.9c0,0-0.3-5.4-5.4-5c-5.1,0.4-4,4.8-4,4.8s-5.7,1.6-5.1-6.5c0.3-4.2,1.1-5.3,1.1-5.3h3.2L8.7,3.3z"/>
</svg>
